Vivado_Simulations/Execute/EX_Stage/EX_Stage.sim/sim_1/behav/xsim/execution_stage.vcd
$date
   Thu May 15 21:17:31 2025
$end

$version
  2024.2.0
  $dumpfile ("execution_stage.vcd") 
$end

$timescale
  1ps
$end

$scope module ExecutionStage_tb $end
$var reg 1 ! clk $end
$var reg 1 " rst $end
$var reg 1 # EX_MEM_RegWrite_i $end
$var reg 1 $ MEM_WB_RegWrite_i $end
$var reg 5 % ID_EX_RS_i [4:0] $end
$var reg 5 & ID_EX_RT_i [4:0] $end
$var reg 5 ' EX_MEM_RD_i [4:0] $end
$var reg 5 ( MEM_WB_RD_i [4:0] $end
$var reg 32 ) rs1_data [31:0] $end
$var reg 32 * rs2_data [31:0] $end
$var reg 32 + EX_MEM_i [31:0] $end
$var reg 32 , MEM_WB_i [31:0] $end
$var reg 2 - alu_op [1:0] $end
$var reg 1 . is_sw $end
$var reg 1 / is_lw $end
$var reg 1 0 is_lui $end
$var reg 1 1 branch $end
$var reg 1 2 is_jal $end
$var reg 3 3 funct3 [2:0] $end
$var reg 7 4 funct7 [6:0] $end
$var reg 1 5 prediction_valid $end
$var reg 32 6 predicted_pc [31:0] $end
$var reg 1 7 alu_src $end
$var reg 32 8 immediate_data [31:0] $end
$var reg 32 9 PC_ID_EX [31:0] $end
$var reg 1 : ALUSrcA $end
$var reg 1 ; is_jalr $end
$var wire 32 < alu_out [31:0] $end
$var wire 1 = branch_taken $end
$var wire 32 > branch_addr [31:0] $end
$var wire 1 ? pc_redirect $end
$var wire 1 @ flush_fetch $end
$var wire 32 A rs2_mem_data [31:0] $end
$scope module uut $end
$var wire 1 B clk $end
$var wire 1 C rst $end
$var wire 1 D EX_MEM_RegWrite_i $end
$var wire 1 E MEM_WB_RegWrite_i $end
$var wire 5 F ID_EX_RS_i [4:0] $end
$var wire 5 G ID_EX_RT_i [4:0] $end
$var wire 5 H EX_MEM_RD_i [4:0] $end
$var wire 5 I MEM_WB_RD_i [4:0] $end
$var wire 32 J rs1_data [31:0] $end
$var wire 32 K rs2_data [31:0] $end
$var wire 32 L EX_MEM_i [31:0] $end
$var wire 32 M MEM_WB_i [31:0] $end
$var wire 2 N alu_op [1:0] $end
$var wire 1 O is_sw $end
$var wire 1 P is_lw $end
$var wire 1 Q is_lui $end
$var wire 1 R branch $end
$var wire 1 S is_jal $end
$var wire 3 T funct3 [2:0] $end
$var wire 7 U funct7 [6:0] $end
$var wire 1 V prediction_valid $end
$var wire 32 W predicted_pc [31:0] $end
$var wire 1 X alu_src $end
$var wire 32 Y immediate_data [31:0] $end
$var wire 32 Z PC_ID_EX [31:0] $end
$var wire 1 [ ALUSrcA $end
$var wire 1 \ is_jalr $end
$var wire 32 < alu_out [31:0] $end
$var wire 32 A rs2_mem_data [31:0] $end
$var wire 1 = branch_taken $end
$var wire 32 > branch_addr [31:0] $end
$var wire 1 ? pc_redirect $end
$var wire 1 @ flush_fetch $end
$var wire 1 ] branch_resolve $end
$var wire 32 ^ forwarded_rs1 [31:0] $end
$var wire 32 _ forwarded_rs2 [31:0] $end
$var wire 4 ` alu_ctrl [3:0] $end
$var wire 32 a raw_alu_out [31:0] $end
$var wire 1 b branch_taken_comb $end
$var wire 32 c branch_addr_comb [31:0] $end
$var wire 32 d PC_plus_4 [31:0] $end
$var wire 32 e alu_out_comb [31:0] $end
$var wire 32 f operandA [31:0] $end
$var wire 32 g operandB [31:0] $end
$var wire 1 h prediction_mismatch $end
$var wire 1 i target_mismatch $end
$var wire 1 j is_misprediction $end
$var wire 1 k pc_redirect_comb $end
$var wire 1 l flush_fetch_comb $end
$scope module FU_inst $end
$var wire 1 D EX_MEM_RegWrite_i $end
$var wire 1 E MEM_WB_RegWrite_i $end
$var wire 5 F ID_EX_RS_i [4:0] $end
$var wire 5 G ID_EX_RT_i [4:0] $end
$var wire 5 H EX_MEM_RD_i [4:0] $end
$var wire 5 I MEM_WB_RD_i [4:0] $end
$var wire 32 J rs1_data [31:0] $end
$var wire 32 K rs2_data [31:0] $end
$var wire 32 L EX_MEM_i [31:0] $end
$var wire 32 M MEM_WB_i [31:0] $end
$var reg 32 m ForwardedDataA_o [31:0] $end
$var reg 32 n ForwardedDataB_o [31:0] $end
$var reg 2 o ForwardA [1:0] $end
$var reg 2 p ForwardB [1:0] $end
$upscope $end
$scope module alu_control_inst $end
$var wire 2 N alu_op [1:0] $end
$var wire 1 Q is_lui $end
$var wire 1 O is_sw $end
$var wire 1 P is_lw $end
$var wire 3 T funct3 [2:0] $end
$var wire 7 U funct7 [6:0] $end
$var reg 4 q alu_ctrl [3:0] $end
$upscope $end
$scope module alu_inst $end
$var wire 32 f a [31:0] $end
$var wire 32 g b [31:0] $end
$var wire 4 ` alu_ctrl [3:0] $end
$var reg 32 r alu_out [31:0] $end
$upscope $end
$scope module branch_unit_inst $end
$var wire 3 T funct3 [2:0] $end
$var wire 32 ^ a [31:0] $end
$var wire 32 _ b [31:0] $end
$var reg 1 s branch_taken $end
$upscope $end
$upscope $end
$scope task xilinx_isim_temp_0_ln91_excessive_seqblock_chunk $end
$upscope $end
$scope task xilinx_isim_temp_1_ln91_excessive_seqblock_chunk $end
$upscope $end
$scope task xilinx_isim_temp_2_ln91_excessive_seqblock_chunk $end
$upscope $end
$scope task xilinx_isim_temp_3_ln91_excessive_seqblock_chunk $end
$upscope $end
$scope task xilinx_isim_temp_4_ln91_excessive_seqblock_chunk $end
$upscope $end
$scope task xilinx_isim_temp_5_ln91_excessive_seqblock_chunk $end
$upscope $end
$scope task xilinx_isim_temp_6_ln91_excessive_seqblock_chunk $end
$upscope $end
$scope task xilinx_isim_temp_7_ln91_excessive_seqblock_chunk $end
$upscope $end
$scope task xilinx_isim_temp_8_ln91_excessive_seqblock_chunk $end
$upscope $end
$scope task xilinx_isim_temp_9_ln91_excessive_seqblock_chunk $end
$upscope $end
$upscope $end
$enddefinitions $end

#0
$dumpvars
0!
1"
0#
0$
b0 %
b0 &
b0 '
b0 (
b0 )
b0 *
b0 +
b0 ,
b0 -
0.
0/
00
01
02
b0 3
b0 4
05
b0 6
07
b0 8
b0 9
0:
0;
b0 <
0=
b0 >
0?
0@
b0 A
0B
1C
0D
0E
b0 F
b0 G
b0 H
b0 I
b0 J
b0 K
b0 L
b0 M
b0 N
0O
0P
0Q
0R
0S
b0 T
b0 U
0V
b0 W
0X
b0 Y
b0 Z
0[
0\
0]
b0 ^
b0 _
b0 `
b0 a
1b
b0 c
b100 d
b0 e
b0 f
b0 g
0h
0i
0j
0k
0l
b0 m
b0 n
b0 o
b0 p
b0 q
b0 r
1s
$end

#10000
1!
0"
1B
0C

#20000
0!
b101 )
b1010 *
b10 -
b1111 <
b1010 A
0B
b101 J
b1010 K
b10 N
b101 ^
b1010 _
b1111 a
0b
b1111 e
b101 f
b1010 g
b101 m
b1010 n
b1111 r
0s

#30000
1!
1B

#40000
0!
b0 -
17
b1010 8
b1010 >
0B
b0 N
1X
b1010 Y
b1010 c

#50000
1!
1B

#60000
0!
b0 )
b0 *
b11 -
10
b10010001101000101000000000000 8
b10010001101000101000000000000 <
b10010001101000101000000000000 >
b0 A
0B
b0 J
b0 K
b11 N
1Q
b10010001101000101000000000000 Y
b0 ^
b0 _
b1010 `
b10010001101000101000000000000 a
1b
b10010001101000101000000000000 c
b10010001101000101000000000000 e
b0 f
b10010001101000101000000000000 g
b0 m
b0 n
b1010 q
b10010001101000101000000000000 r
1s

#70000
1!
b0 -
00
b0 8
b0 <
b0 >
1B
b0 N
0Q
b0 Y
b0 `
b0 a
b0 c
b0 e
b0 g
b0 q
b0 r

#80000
0!
b11 -
b1000000000 8
b1000000000000 9
1:
b1001000000000 <
b1001000000000 >
0B
b11 N
b1000000000 Y
b1000000000000 Z
1[
b1001000000000 a
b1001000000000 c
b1000000000100 d
b1001000000000 e
b1000000000000 f
b1000000000 g
b1001000000000 r

#90000
1!
b0 -
0:
b1000000000 <
1B
b0 N
0[
b1000000000 a
b1000000000 e
b0 f
b1000000000 r

#100000
0!
b11 -
11
12
15
b1000000000000 6
b11111111111111111111000000000000 8
b10000000000000 9
b10000000000100 <
1=
b1000000000000 >
1?
0@
0B
b11 N
1R
1S
1V
b1000000000000 W
b11111111111111111111000000000000 Y
b10000000000000 Z
1]
b11111111111111111111000000000000 a
b1000000000000 c
b10000000000100 d
b10000000000100 e
b11111111111111111111000000000000 g
0i
0j
1k
0l
b11111111111111111111000000000000 r

#110000
1!
b101000000000000 6
1@
1B
b101000000000000 W
1i
1j
1l

#120000
0!
b0 -
01
02
05
b0 6
b0 8
b0 <
0=
b10000000000000 >
0?
0@
0B
b0 N
0R
0S
0V
b0 W
b0 Y
0]
b0 a
b10000000000000 c
b0 e
b0 g
0i
0j
0k
0l
b0 r

#130000
1!
b11000000000001 )
b11 -
11
15
b11000000100000 6
b100000 8
b100000000000000 9
1;
b100000000000100 <
0=
b11000000100000 >
1?
1@
1B
b11000000000001 J
b11 N
1R
1V
b11000000100000 W
b100000 Y
b100000000000000 Z
1\
1]
b11000000000001 ^
b11000000100001 a
0b
b11000000100000 c
b100000000000100 d
b100000000000100 e
b11000000000001 f
b100000 g
1h
0i
1j
1k
1l
b11000000000001 m
b11000000100001 r
0s

#140000
0!
b110000000000000 6
0B
b110000000000000 W

#150000
1!
b0 )
b0 -
01
05
b0 6
b0 8
0;
b0 <
b100000000000000 >
0?
0@
1B
b0 J
b0 N
0R
0V
b0 W
b0 Y
0\
0]
b0 ^
b0 a
1b
b100000000000000 c
b0 e
b0 f
b0 g
0h
0j
0k
0l
b0 m
b0 r
1s

#160000
0!
b1010 )
b1010 *
b1 -
11
15
b101000100000000 6
b100000000 8
b101000000000000 9
b11111111111111111111111100001010 <
1=
b101000100000000 >
1?
0@
b1010 A
0B
b1010 J
b1010 K
b1 N
1R
1V
b101000100000000 W
b100000000 Y
b101000000000000 Z
1]
b1010 ^
b1010 _
b1 `
b11111111111111111111111100001010 a
b101000100000000 c
b101000000000100 d
b11111111111111111111111100001010 e
b1010 f
b100000000 g
0i
0j
1k
0l
b1010 m
b1010 n
b1 q
b11111111111111111111111100001010 r

#170000
1!
1B

#180000
0!
05
b101000000000100 6
1@
0B
0V
b101000000000100 W
1h
1i
1j
1l

#190000
1!
1B

#200000
0!
15
b110000000000000 6
0B
1V
b110000000000000 W
0h

#210000
1!
1B

#220000
0!
b1011 *
05
b101000000000100 6
0=
0?
0@
b1011 A
0B
b1011 K
0V
b101000000000100 W
b1011 _
0b
0h
0i
0j
0k
0l
b1011 n
0s

#230000
1!
1B

#240000
0!
15
b101000100000000 6
1@
0B
1V
b101000100000000 W
1h
1j
1l

#250000
1!
1B

#260000
0!
b1000000000000 )
b11001010111111101011101010111110 *
b0 -
1.
01
b10 3
05
b0 6
b1000000 8
b1000001000000 <
b101000001000000 >
0@
b11001010111111101011101010111110 A
0B
b1000000000000 J
b11001010111111101011101010111110 K
b0 N
1O
0R
b10 T
0V
b0 W
b1000000 Y
0]
b1000000000000 ^
b11001010111111101011101010111110 _
b0 `
b1000001000000 a
b101000001000000 c
b1000001000000 e
b1000000000000 f
b1000000 g
0h
0j
0l
b1000000000000 m
b11001010111111101011101010111110 n
b0 q
b1000001000000 r

#270000
1!
b0 *
0.
b0 <
b0 A
1B
b0 K
0O
b0 _
b11 `
b0 a
b0 e
b0 n
b11 q
b0 r

#280000
0!
b10000000000000 )
1/
b10000000 8
b10000010000000 <
b101000010000000 >
0B
b10000000000000 J
1P
b10000000 Y
b10000000000000 ^
b0 `
b10000010000000 a
b101000010000000 c
b10000010000000 e
b10000000000000 f
b10000000 g
b10000000000000 m
b0 q
b10000010000000 r

#290000
1!
0/
b0 <
1B
0P
b11 `
b0 a
b0 e
b11 q
b0 r

#300000
0!
b1111 )
b100 *
b10 -
b1 3
07
b11110000 <
b100 A
0B
b1111 J
b100 K
b10 N
b1 T
0X
b1111 ^
b100 _
b10 `
b11110000 a
1b
b11110000 e
b1111 f
b100 g
b1111 m
b100 n
b10 q
b11110000 r
1s

#310000
1!
1B

#320000
0!
b0 -
17
b1000 8
b111100000000 <
b101000000001000 >
0B
b0 N
1X
b1000 Y
b111100000000 a
b101000000001000 c
b111100000000 e
b1000 g
b111100000000 r

#330000
1!
1B

#340000
0!
b1010 *
b10 -
b0 3
b100000 4
07
b101 <
b1010 A
0B
b1010 K
b10 N
b0 T
b100000 U
0X
b1010 _
b1 `
b101 a
0b
b101 e
b1010 g
b1010 n
b1 q
b101 r
0s

#350000
1!
1B

#360000
0!
b11111111111111111111111111111111 )
b10101010101010101010101010101010 *
b111 3
b0 4
b10101010101010101010101010101010 <
b10101010101010101010101010101010 A
0B
b11111111111111111111111111111111 J
b10101010101010101010101010101010 K
b111 T
b0 U
b11111111111111111111111111111111 ^
b10101010101010101010101010101010 _
b1001 `
b10101010101010101010101010101010 a
1b
b10101010101010101010101010101010 e
b11111111111111111111111111111111 f
b10101010101010101010101010101010 g
b11111111111111111111111111111111 m
b10101010101010101010101010101010 n
b1001 q
b10101010101010101010101010101010 r
1s

#370000
1!
1B

#380000
0!
b10010001101000101011001111000 )
b10000111011001010100001100100001 *
b110 3
b10010111011101010101011101111001 <
b10000111011001010100001100100001 A
0B
b10010001101000101011001111000 J
b10000111011001010100001100100001 K
b110 T
b10010001101000101011001111000 ^
b10000111011001010100001100100001 _
b1000 `
b10010111011101010101011101111001 a
b10010111011101010101011101111001 e
b10010001101000101011001111000 f
b10000111011001010100001100100001 g
b10010001101000101011001111000 m
b10000111011001010100001100100001 n
b1000 q
b10010111011101010101011101111001 r

#390000
1!
1B

#400000
0!
b10101010101010101010101010101010 )
b1010101010101010101010101010101 *
b100 3
b11111111111111111111111111111111 <
b1010101010101010101010101010101 A
0B
b10101010101010101010101010101010 J
b1010101010101010101010101010101 K
b100 T
b10101010101010101010101010101010 ^
b1010101010101010101010101010101 _
b101 `
b11111111111111111111111111111111 a
b11111111111111111111111111111111 e
b10101010101010101010101010101010 f
b1010101010101010101010101010101 g
b10101010101010101010101010101010 m
b1010101010101010101010101010101 n
b101 q
b11111111111111111111111111111111 r

#410000
1!
1B

#420000
0!
b10000000000000000000000000000000 )
b100 *
b101 3
b1000000000000000000000000000 <
b100 A
0B
b10000000000000000000000000000000 J
b100 K
b101 T
b10000000000000000000000000000000 ^
b100 _
b110 `
b1000000000000000000000000000 a
0b
b1000000000000000000000000000 e
b10000000000000000000000000000000 f
b100 g
b10000000000000000000000000000000 m
b100 n
b110 q
b1000000000000000000000000000 r
0s

#430000
1!
1B

#440000
0!
b100000 4
b11111000000000000000000000000000 <
0B
b100000 U
b111 `
b11111000000000000000000000000000 a
b11111000000000000000000000000000 e
b111 q
b11111000000000000000000000000000 r

#450000
1!
1B

#460000
0!
b11111111111111111111111111111110 )
b1 *
b10 3
b0 4
b1 <
b1 A
0B
b11111111111111111111111111111110 J
b1 K
b10 T
b0 U
b11111111111111111111111111111110 ^
b1 _
b11 `
b1 a
b1 e
b11111111111111111111111111111110 f
b1 g
b11111111111111111111111111111110 m
b1 n
b11 q
b1 r

#470000
1!
1B

#480000
0!
b11111111111111111111111111111111 )
b11 3
b0 <
0B
b11111111111111111111111111111111 J
b11 T
b11111111111111111111111111111111 ^
b100 `
b0 a
b0 e
b11111111111111111111111111111111 f
b11111111111111111111111111111111 m
b100 q
b0 r

#490000
1!
1B

#500000
0!
b0 -
b111 3
17
b1010101010101010 8
b1010101010101010 <
b1111101010101010 >
0B
b0 N
b111 T
1X
b1010101010101010 Y
b1001 `
b1010101010101010 a
1b
b1111101010101010 c
b1010101010101010 e
b1010101010101010 g
b1001 q
b1010101010101010 r
1s

#510000
1!
1B

#520000
0!
b1001000110100 )
b110 3
b11111111111111110000000000000000 8
b11111111111111110001001000110100 <
b11111111111111110101000000000000 >
0B
b1001000110100 J
b110 T
b11111111111111110000000000000000 Y
b1001000110100 ^
b1000 `
b11111111111111110001001000110100 a
0b
b11111111111111110101000000000000 c
b11111111111111110001001000110100 e
b1001000110100 f
b11111111111111110000000000000000 g
b1001000110100 m
b1000 q
b11111111111111110001001000110100 r
0s

#530000
1!
1B

#540000
0!
b10101010101010101010101010101010 )
b100 3
b1010101010101010101010101010101 8
b11111111111111111111111111111111 <
b1010101010101011010010101010101 >
0B
b10101010101010101010101010101010 J
b100 T
b1010101010101010101010101010101 Y
b10101010101010101010101010101010 ^
b101 `
b11111111111111111111111111111111 a
1b
b1010101010101011010010101010101 c
b11111111111111111111111111111111 e
b10101010101010101010101010101010 f
b1010101010101010101010101010101 g
b10101010101010101010101010101010 m
b101 q
b11111111111111111111111111111111 r
1s

#550000
1!
1B

#560000
0!
b10000000000000000000000000000000 )
b101 3
b100 8
b1000000000000000000000000000 <
b101000000000100 >
0B
b10000000000000000000000000000000 J
b101 T
b100 Y
b10000000000000000000000000000000 ^
b110 `
b1000000000000000000000000000 a
0b
b101000000000100 c
b1000000000000000000000000000 e
b10000000000000000000000000000000 f
b100 g
b10000000000000000000000000000000 m
b110 q
b1000000000000000000000000000 r
0s

#570000
1!
1B

#580000
0!
b100000 4
b11111000000000000000000000000000 <
0B
b100000 U
b111 `
b11111000000000000000000000000000 a
b11111000000000000000000000000000 e
b111 q
b11111000000000000000000000000000 r

#590000
1!
1B

#600000
0!
b11111111111111111111111111111110 )
b10 3
b1 8
b1 <
b101000000000001 >
0B
b11111111111111111111111111111110 J
b10 T
b1 Y
b11111111111111111111111111111110 ^
b11 `
b1 a
b101000000000001 c
b1 e
b11111111111111111111111111111110 f
b1 g
b11111111111111111111111111111110 m
b11 q
b1 r

#610000
1!
1B

#620000
0!
b11111111111111111111111111111111 )
b11 3
b0 <
0B
b11111111111111111111111111111111 J
b11 T
b11111111111111111111111111111111 ^
b100 `
b0 a
b0 e
b11111111111111111111111111111111 f
b11111111111111111111111111111111 m
b100 q
b0 r

#630000
1!
1B

#640000
0!
b1010 )
b1011 *
b1 -
11
b0 3
b110000000000100 6
b100000000 8
b110000000000000 9
b11111111111111111111111100001010 <
b110000100000000 >
b1011 A
0B
b1010 J
b1011 K
b1 N
1R
b0 T
b110000000000100 W
b100000000 Y
b110000000000000 Z
1]
b1010 ^
b1011 _
b1 `
b11111111111111111111111100001010 a
b110000100000000 c
b110000000000100 d
b11111111111111111111111100001010 e
b1010 f
b100000000 g
b1010 m
b1011 n
b1 q
b11111111111111111111111100001010 r

#650000
1!
1B

#660000
0!
b1 3
15
b111001000000000 6
b1000000000 8
b111000000000000 9
b11111111111111111111111000001010 <
1=
b111001000000000 >
1?
0@
0B
b1 T
1V
b111001000000000 W
b1000000000 Y
b111000000000000 Z
b11111111111111111111111000001010 a
1b
b111001000000000 c
b111000000000100 d
b11111111111111111111111000001010 e
b1000000000 g
0h
0j
1k
0l
b11111111111111111111111000001010 r
1s

#670000
1!
1B

#680000
0!
b11111111111111111111111111111111 )
b1 *
b100 3
b1000001100000000 6
b1100000000 8
b1000000000000000 9
b11111111111111111111110011111111 <
b1000001100000000 >
0@
b1 A
0B
b11111111111111111111111111111111 J
b1 K
b100 T
b1000001100000000 W
b1100000000 Y
b1000000000000000 Z
b11111111111111111111111111111111 ^
b1 _
b11111111111111111111110011111111 a
b1000001100000000 c
b1000000000000100 d
b11111111111111111111110011111111 e
b11111111111111111111111111111111 f
b1100000000 g
0i
0j
0l
b11111111111111111111111111111111 m
b1 n
b11111111111111111111110011111111 r

#690000
1!
1B

#700000
0!
b0 *
b101 3
05
b1001000000000100 6
b10000000000 8
b1001000000000000 9
b11111111111111111111101111111111 <
0=
b1001010000000000 >
0?
0@
b0 A
0B
b0 K
b101 T
0V
b1001000000000100 W
b10000000000 Y
b1001000000000000 Z
b0 _
b11111111111111111111101111111111 a
0b
b1001010000000000 c
b1001000000000100 d
b11111111111111111111101111111111 e
b10000000000 g
0h
0i
0j
0k
0l
b0 n
b11111111111111111111101111111111 r
0s

#710000
1!
1B

#720000
0!
b1 )
b11111111111111111111111111111111 *
b110 3
15
b1010010100000000 6
b10100000000 8
b1010000000000000 9
b11111111111111111111101100000001 <
1=
b1010010100000000 >
1?
0@
b11111111111111111111111111111111 A
0B
b1 J
b11111111111111111111111111111111 K
b110 T
1V
b1010010100000000 W
b10100000000 Y
b1010000000000000 Z
b1 ^
b11111111111111111111111111111111 _
b11111111111111111111101100000001 a
1b
b1010010100000000 c
b1010000000000100 d
b11111111111111111111101100000001 e
b1 f
b10100000000 g
0h
0j
1k
0l
b1 m
b11111111111111111111111111111111 n
b11111111111111111111101100000001 r
1s

#730000
1!
1B

#740000
0!
b111 3
05
b1011000000000100 6
b11000000000 8
b1011000000000000 9
b11111111111111111111101000000001 <
0=
b1011011000000000 >
0?
0@
0B
b111 T
0V
b1011000000000100 W
b11000000000 Y
b1011000000000000 Z
b11111111111111111111101000000001 a
0b
b1011011000000000 c
b1011000000000100 d
b11111111111111111111101000000001 e
b11000000000 g
0h
0i
0j
0k
0l
b11111111111111111111101000000001 r
0s

#750000
1!
1B

#760000
0!
1$
b101 %
b10 &
b101 (
b0 )
b1 *
b11011110101011011011111011101111 ,
b10 -
01
b0 3
b0 4
b0 6
07
b11011110101011011011111011110000 <
b1 A
0B
1E
b101 F
b10 G
b101 I
b0 J
b1 K
b11011110101011011011111011101111 M
b10 N
0R
b0 T
b0 U
b0 W
0X
0]
b11011110101011011011111011101111 ^
b1 _
b0 `
b11011110101011011011111011110000 a
b11011110101011011011111011110000 e
b11011110101011011011111011101111 f
b1 g
b11011110101011011011111011101111 m
b1 n
b1 o
b0 q
b11011110101011011011111011110000 r

#770000
1!
0$
b1 <
1B
0E
b0 ^
b1 a
b1 e
b0 f
b0 m
b0 o
b1 r

#780000
0!
1#
b10 %
b110 &
b110 '
b10 )
b0 *
b11001010111111101011101010111110 +
b11001010111111101011101011000000 <
b11001010111111101011101010111110 A
0B
1D
b10 F
b110 G
b110 H
b10 J
b0 K
b11001010111111101011101010111110 L
b10 ^
b11001010111111101011101010111110 _
b11001010111111101011101011000000 a
b11001010111111101011101011000000 e
b10 f
b11001010111111101011101010111110 g
b10 m
b11001010111111101011101010111110 n
b10 p
b11001010111111101011101011000000 r

#790000
1!
0#
b10 <
b0 A
1B
0D
b0 _
b10 a
b10 e
b0 g
b0 n
b0 p
b10 r

#800000
0!
1#
1$
b111 %
b10 &
b111 '
b111 (
b0 )
b1 *
b10101010101010101111111111111111 +
b10111011101110111110111011101110 ,
b10101010101010110000000000000000 <
b1 A
0B
1D
1E
b111 F
b10 G
b111 H
b111 I
b0 J
b1 K
b10101010101010101111111111111111 L
b10111011101110111110111011101110 M
b10101010101010101111111111111111 ^
b1 _
b10101010101010110000000000000000 a
b10101010101010110000000000000000 e
b10101010101010101111111111111111 f
b1 g
b10101010101010101111111111111111 m
b1 n
b10 o
b10101010101010110000000000000000 r

#810000
1!
0#
0$
b1 <
1B
0D
0E
b0 ^
b1 a
b1 e
b0 f
b0 m
b0 o
b1 r

#820000
0!
1#
1$
b10 %
b1000 &
b1000 '
b1000 (
b10 )
b0 *
b11001100110011001101110111011101 +
b11101110111011101111111111111111 ,
b11001100110011001101110111011111 <
b11001100110011001101110111011101 A
0B
1D
1E
b10 F
b1000 G
b1000 H
b1000 I
b10 J
b0 K
b11001100110011001101110111011101 L
b11101110111011101111111111111111 M
b10 ^
b11001100110011001101110111011101 _
b11001100110011001101110111011111 a
b11001100110011001101110111011111 e
b10 f
b11001100110011001101110111011101 g
b10 m
b11001100110011001101110111011101 n
b10 p
b11001100110011001101110111011111 r

#830000
1!
0#
0$
b10 <
b0 A
1B
0D
0E
b0 _
b10 a
b10 e
b0 g
b0 n
b0 p
b10 r

#840000
0!
1#
1$
b0 %
b0 &
b0 '
b0 (
b0 )
b1011101011011111000000001101 +
b1100000000011011111000000001101 ,
b0 <
0B
1D
1E
b0 F
b0 G
b0 H
b0 I
b0 J
b1011101011011111000000001101 L
b1100000000011011111000000001101 M
b0 ^
b0 a
1b
b0 e
b0 f
b0 m
b0 r
1s

#850000
1!
0#
0$
1B
0D
0E

#860000
0!
b0 -
0B
