Vivado_Simulations/Execute/EX_Stage/EX_Stage.sim/sim_1/behav/xsim/simulate.log
Time resolution is 1 ps
Time=0: clk=0, rst=1, EX_MEM_RegWrite=0, MEM_WB_RegWrite=0, ID_EX_RS= 0, ID_EX_RT= 0, EX_MEM_RD= 0, MEM_WB_RD= 0, rs1_data=00000000, rs2_data=00000000, EX_MEM_i=00000000, MEM_WB_i=00000000, alu_op=00, is_sw=0, is_lw=0, is_lui=0, branch=0, is_jal=0, funct3=000, funct7=0000000, prediction_valid=0, predicted_pc=00000000, alu_src=0, immediate_data=00000000, PC_ID_EX=00000000, ALUSrcA=0, is_jalr=0, alu_out=00000000, branch_taken=0, branch_addr=00000000, pc_redirect=0, flush_fetch=0, rs2_mem_data=00000000
Time=10000: clk=1, rst=0, EX_MEM_RegWrite=0, MEM_WB_RegWrite=0, ID_EX_RS= 0, ID_EX_RT= 0, EX_MEM_RD= 0, MEM_WB_RD= 0, rs1_data=00000000, rs2_data=00000000, EX_MEM_i=00000000, MEM_WB_i=00000000, alu_op=00, is_sw=0, is_lw=0, is_lui=0, branch=0, is_jal=0, funct3=000, funct7=0000000, prediction_valid=0, predicted_pc=00000000, alu_src=0, immediate_data=00000000, PC_ID_EX=00000000, ALUSrcA=0, is_jalr=0, alu_out=00000000, branch_taken=0, branch_addr=00000000, pc_redirect=0, flush_fetch=0, rs2_mem_data=00000000
Test Case 1: ADD
Time=20000: clk=0, rst=0, EX_MEM_RegWrite=0, MEM_WB_RegWrite=0, ID_EX_RS= 0, ID_EX_RT= 0, EX_MEM_RD= 0, MEM_WB_RD= 0, rs1_data=00000005, rs2_data=0000000a, EX_MEM_i=00000000, MEM_WB_i=00000000, alu_op=10, is_sw=0, is_lw=0, is_lui=0, branch=0, is_jal=0, funct3=000, funct7=0000000, prediction_valid=0, predicted_pc=00000000, alu_src=0, immediate_data=00000000, PC_ID_EX=00000000, ALUSrcA=0, is_jalr=0, alu_out=0000000f, branch_taken=0, branch_addr=00000000, pc_redirect=0, flush_fetch=0, rs2_mem_data=0000000a
Time=30000: clk=1, rst=0, EX_MEM_RegWrite=0, MEM_WB_RegWrite=0, ID_EX_RS= 0, ID_EX_RT= 0, EX_MEM_RD= 0, MEM_WB_RD= 0, rs1_data=00000005, rs2_data=0000000a, EX_MEM_i=00000000, MEM_WB_i=00000000, alu_op=10, is_sw=0, is_lw=0, is_lui=0, branch=0, is_jal=0, funct3=000, funct7=0000000, prediction_valid=0, predicted_pc=00000000, alu_src=0, immediate_data=00000000, PC_ID_EX=00000000, ALUSrcA=0, is_jalr=0, alu_out=0000000f, branch_taken=0, branch_addr=00000000, pc_redirect=0, flush_fetch=0, rs2_mem_data=0000000a
Test Case 2: ADDI
Time=40000: clk=0, rst=0, EX_MEM_RegWrite=0, MEM_WB_RegWrite=0, ID_EX_RS= 0, ID_EX_RT= 0, EX_MEM_RD= 0, MEM_WB_RD= 0, rs1_data=00000005, rs2_data=0000000a, EX_MEM_i=00000000, MEM_WB_i=00000000, alu_op=00, is_sw=0, is_lw=0, is_lui=0, branch=0, is_jal=0, funct3=000, funct7=0000000, prediction_valid=0, predicted_pc=00000000, alu_src=1, immediate_data=0000000a, PC_ID_EX=00000000, ALUSrcA=0, is_jalr=0, alu_out=0000000f, branch_taken=0, branch_addr=0000000a, pc_redirect=0, flush_fetch=0, rs2_mem_data=0000000a
Time=50000: clk=1, rst=0, EX_MEM_RegWrite=0, MEM_WB_RegWrite=0, ID_EX_RS= 0, ID_EX_RT= 0, EX_MEM_RD= 0, MEM_WB_RD= 0, rs1_data=00000005, rs2_data=0000000a, EX_MEM_i=00000000, MEM_WB_i=00000000, alu_op=00, is_sw=0, is_lw=0, is_lui=0, branch=0, is_jal=0, funct3=000, funct7=0000000, prediction_valid=0, predicted_pc=00000000, alu_src=1, immediate_data=0000000a, PC_ID_EX=00000000, ALUSrcA=0, is_jalr=0, alu_out=0000000f, branch_taken=0, branch_addr=0000000a, pc_redirect=0, flush_fetch=0, rs2_mem_data=0000000a
Test Case 3: LUI
Time=60000: clk=0, rst=0, EX_MEM_RegWrite=0, MEM_WB_RegWrite=0, ID_EX_RS= 0, ID_EX_RT= 0, EX_MEM_RD= 0, MEM_WB_RD= 0, rs1_data=00000000, rs2_data=00000000, EX_MEM_i=00000000, MEM_WB_i=00000000, alu_op=11, is_sw=0, is_lw=0, is_lui=1, branch=0, is_jal=0, funct3=000, funct7=0000000, prediction_valid=0, predicted_pc=00000000, alu_src=1, immediate_data=12345000, PC_ID_EX=00000000, ALUSrcA=0, is_jalr=0, alu_out=12345000, branch_taken=0, branch_addr=12345000, pc_redirect=0, flush_fetch=0, rs2_mem_data=00000000
Time=70000: clk=1, rst=0, EX_MEM_RegWrite=0, MEM_WB_RegWrite=0, ID_EX_RS= 0, ID_EX_RT= 0, EX_MEM_RD= 0, MEM_WB_RD= 0, rs1_data=00000000, rs2_data=00000000, EX_MEM_i=00000000, MEM_WB_i=00000000, alu_op=00, is_sw=0, is_lw=0, is_lui=0, branch=0, is_jal=0, funct3=000, funct7=0000000, prediction_valid=0, predicted_pc=00000000, alu_src=1, immediate_data=00000000, PC_ID_EX=00000000, ALUSrcA=0, is_jalr=0, alu_out=00000000, branch_taken=0, branch_addr=00000000, pc_redirect=0, flush_fetch=0, rs2_mem_data=00000000
Test Case 4: AUIPC
Time=80000: clk=0, rst=0, EX_MEM_RegWrite=0, MEM_WB_RegWrite=0, ID_EX_RS= 0, ID_EX_RT= 0, EX_MEM_RD= 0, MEM_WB_RD= 0, rs1_data=00000000, rs2_data=00000000, EX_MEM_i=00000000, MEM_WB_i=00000000, alu_op=11, is_sw=0, is_lw=0, is_lui=0, branch=0, is_jal=0, funct3=000, funct7=0000000, prediction_valid=0, predicted_pc=00000000, alu_src=1, immediate_data=00000200, PC_ID_EX=00001000, ALUSrcA=1, is_jalr=0, alu_out=00001200, branch_taken=0, branch_addr=00001200, pc_redirect=0, flush_fetch=0, rs2_mem_data=00000000
Time=90000: clk=1, rst=0, EX_MEM_RegWrite=0, MEM_WB_RegWrite=0, ID_EX_RS= 0, ID_EX_RT= 0, EX_MEM_RD= 0, MEM_WB_RD= 0, rs1_data=00000000, rs2_data=00000000, EX_MEM_i=00000000, MEM_WB_i=00000000, alu_op=00, is_sw=0, is_lw=0, is_lui=0, branch=0, is_jal=0, funct3=000, funct7=0000000, prediction_valid=0, predicted_pc=00000000, alu_src=1, immediate_data=00000200, PC_ID_EX=00001000, ALUSrcA=0, is_jalr=0, alu_out=00000200, branch_taken=0, branch_addr=00001200, pc_redirect=0, flush_fetch=0, rs2_mem_data=00000000
Test Case 5: JAL
Time=100000: clk=0, rst=0, EX_MEM_RegWrite=0, MEM_WB_RegWrite=0, ID_EX_RS= 0, ID_EX_RT= 0, EX_MEM_RD= 0, MEM_WB_RD= 0, rs1_data=00000000, rs2_data=00000000, EX_MEM_i=00000000, MEM_WB_i=00000000, alu_op=11, is_sw=0, is_lw=0, is_lui=0, branch=1, is_jal=1, funct3=000, funct7=0000000, prediction_valid=1, predicted_pc=00001000, alu_src=1, immediate_data=fffff000, PC_ID_EX=00002000, ALUSrcA=0, is_jalr=0, alu_out=00002004, branch_taken=1, branch_addr=00001000, pc_redirect=1, flush_fetch=0, rs2_mem_data=00000000
JAL Error (Correct Prediction): alu_out=00002004 branch_addr=00001000 pc_redirect=1 flush_fetch=0
Test Case 5a: JAL Misprediction
Time=110000: clk=1, rst=0, EX_MEM_RegWrite=0, MEM_WB_RegWrite=0, ID_EX_RS= 0, ID_EX_RT= 0, EX_MEM_RD= 0, MEM_WB_RD= 0, rs1_data=00000000, rs2_data=00000000, EX_MEM_i=00000000, MEM_WB_i=00000000, alu_op=11, is_sw=0, is_lw=0, is_lui=0, branch=1, is_jal=1, funct3=000, funct7=0000000, prediction_valid=1, predicted_pc=00005000, alu_src=1, immediate_data=fffff000, PC_ID_EX=00002000, ALUSrcA=0, is_jalr=0, alu_out=00002004, branch_taken=1, branch_addr=00001000, pc_redirect=1, flush_fetch=1, rs2_mem_data=00000000
Time=120000: clk=0, rst=0, EX_MEM_RegWrite=0, MEM_WB_RegWrite=0, ID_EX_RS= 0, ID_EX_RT= 0, EX_MEM_RD= 0, MEM_WB_RD= 0, rs1_data=00000000, rs2_data=00000000, EX_MEM_i=00000000, MEM_WB_i=00000000, alu_op=00, is_sw=0, is_lw=0, is_lui=0, branch=0, is_jal=0, funct3=000, funct7=0000000, prediction_valid=0, predicted_pc=00000000, alu_src=1, immediate_data=00000000, PC_ID_EX=00002000, ALUSrcA=0, is_jalr=0, alu_out=00000000, branch_taken=0, branch_addr=00002000, pc_redirect=0, flush_fetch=0, rs2_mem_data=00000000
Test Case 6: JALR
Time=130000: clk=1, rst=0, EX_MEM_RegWrite=0, MEM_WB_RegWrite=0, ID_EX_RS= 0, ID_EX_RT= 0, EX_MEM_RD= 0, MEM_WB_RD= 0, rs1_data=00003001, rs2_data=00000000, EX_MEM_i=00000000, MEM_WB_i=00000000, alu_op=11, is_sw=0, is_lw=0, is_lui=0, branch=1, is_jal=0, funct3=000, funct7=0000000, prediction_valid=1, predicted_pc=00003020, alu_src=1, immediate_data=00000020, PC_ID_EX=00004000, ALUSrcA=0, is_jalr=1, alu_out=00004004, branch_taken=0, branch_addr=00003020, pc_redirect=1, flush_fetch=1, rs2_mem_data=00000000
JALR Error (Correct Prediction): alu_out=00004004 branch_addr=00003020 pc_redirect=1 flush_fetch=1
Test Case 6a: JALR Misprediction
Time=140000: clk=0, rst=0, EX_MEM_RegWrite=0, MEM_WB_RegWrite=0, ID_EX_RS= 0, ID_EX_RT= 0, EX_MEM_RD= 0, MEM_WB_RD= 0, rs1_data=00003001, rs2_data=00000000, EX_MEM_i=00000000, MEM_WB_i=00000000, alu_op=11, is_sw=0, is_lw=0, is_lui=0, branch=1, is_jal=0, funct3=000, funct7=0000000, prediction_valid=1, predicted_pc=00006000, alu_src=1, immediate_data=00000020, PC_ID_EX=00004000, ALUSrcA=0, is_jalr=1, alu_out=00004004, branch_taken=0, branch_addr=00003020, pc_redirect=1, flush_fetch=1, rs2_mem_data=00000000
Time=150000: clk=1, rst=0, EX_MEM_RegWrite=0, MEM_WB_RegWrite=0, ID_EX_RS= 0, ID_EX_RT= 0, EX_MEM_RD= 0, MEM_WB_RD= 0, rs1_data=00000000, rs2_data=00000000, EX_MEM_i=00000000, MEM_WB_i=00000000, alu_op=00, is_sw=0, is_lw=0, is_lui=0, branch=0, is_jal=0, funct3=000, funct7=0000000, prediction_valid=0, predicted_pc=00000000, alu_src=1, immediate_data=00000000, PC_ID_EX=00004000, ALUSrcA=0, is_jalr=0, alu_out=00000000, branch_taken=0, branch_addr=00004000, pc_redirect=0, flush_fetch=0, rs2_mem_data=00000000
Test Case 7: BEQ Taken (Correct Prediction)
Time=160000: clk=0, rst=0, EX_MEM_RegWrite=0, MEM_WB_RegWrite=0, ID_EX_RS= 0, ID_EX_RT= 0, EX_MEM_RD= 0, MEM_WB_RD= 0, rs1_data=0000000a, rs2_data=0000000a, EX_MEM_i=00000000, MEM_WB_i=00000000, alu_op=01, is_sw=0, is_lw=0, is_lui=0, branch=1, is_jal=0, funct3=000, funct7=0000000, prediction_valid=1, predicted_pc=00005100, alu_src=1, immediate_data=00000100, PC_ID_EX=00005000, ALUSrcA=0, is_jalr=0, alu_out=ffffff0a, branch_taken=1, branch_addr=00005100, pc_redirect=1, flush_fetch=0, rs2_mem_data=0000000a
BEQ Taken Error (Correct Prediction): branch_taken=1 branch_addr=00005100 pc_redirect=1 flush_fetch=0
Time=170000: clk=1, rst=0, EX_MEM_RegWrite=0, MEM_WB_RegWrite=0, ID_EX_RS= 0, ID_EX_RT= 0, EX_MEM_RD= 0, MEM_WB_RD= 0, rs1_data=0000000a, rs2_data=0000000a, EX_MEM_i=00000000, MEM_WB_i=00000000, alu_op=01, is_sw=0, is_lw=0, is_lui=0, branch=1, is_jal=0, funct3=000, funct7=0000000, prediction_valid=1, predicted_pc=00005100, alu_src=1, immediate_data=00000100, PC_ID_EX=00005000, ALUSrcA=0, is_jalr=0, alu_out=ffffff0a, branch_taken=1, branch_addr=00005100, pc_redirect=1, flush_fetch=0, rs2_mem_data=0000000a
Test Case 7a: BEQ Taken (Mispredicted Not Taken)
Time=180000: clk=0, rst=0, EX_MEM_RegWrite=0, MEM_WB_RegWrite=0, ID_EX_RS= 0, ID_EX_RT= 0, EX_MEM_RD= 0, MEM_WB_RD= 0, rs1_data=0000000a, rs2_data=0000000a, EX_MEM_i=00000000, MEM_WB_i=00000000, alu_op=01, is_sw=0, is_lw=0, is_lui=0, branch=1, is_jal=0, funct3=000, funct7=0000000, prediction_valid=0, predicted_pc=00005004, alu_src=1, immediate_data=00000100, PC_ID_EX=00005000, ALUSrcA=0, is_jalr=0, alu_out=ffffff0a, branch_taken=1, branch_addr=00005100, pc_redirect=1, flush_fetch=1, rs2_mem_data=0000000a
Time=190000: clk=1, rst=0, EX_MEM_RegWrite=0, MEM_WB_RegWrite=0, ID_EX_RS= 0, ID_EX_RT= 0, EX_MEM_RD= 0, MEM_WB_RD= 0, rs1_data=0000000a, rs2_data=0000000a, EX_MEM_i=00000000, MEM_WB_i=00000000, alu_op=01, is_sw=0, is_lw=0, is_lui=0, branch=1, is_jal=0, funct3=000, funct7=0000000, prediction_valid=0, predicted_pc=00005004, alu_src=1, immediate_data=00000100, PC_ID_EX=00005000, ALUSrcA=0, is_jalr=0, alu_out=ffffff0a, branch_taken=1, branch_addr=00005100, pc_redirect=1, flush_fetch=1, rs2_mem_data=0000000a
Test Case 7b: BEQ Taken (Mispredicted Target Address)
Time=200000: clk=0, rst=0, EX_MEM_RegWrite=0, MEM_WB_RegWrite=0, ID_EX_RS= 0, ID_EX_RT= 0, EX_MEM_RD= 0, MEM_WB_RD= 0, rs1_data=0000000a, rs2_data=0000000a, EX_MEM_i=00000000, MEM_WB_i=00000000, alu_op=01, is_sw=0, is_lw=0, is_lui=0, branch=1, is_jal=0, funct3=000, funct7=0000000, prediction_valid=1, predicted_pc=00006000, alu_src=1, immediate_data=00000100, PC_ID_EX=00005000, ALUSrcA=0, is_jalr=0, alu_out=ffffff0a, branch_taken=1, branch_addr=00005100, pc_redirect=1, flush_fetch=1, rs2_mem_data=0000000a
Time=210000: clk=1, rst=0, EX_MEM_RegWrite=0, MEM_WB_RegWrite=0, ID_EX_RS= 0, ID_EX_RT= 0, EX_MEM_RD= 0, MEM_WB_RD= 0, rs1_data=0000000a, rs2_data=0000000a, EX_MEM_i=00000000, MEM_WB_i=00000000, alu_op=01, is_sw=0, is_lw=0, is_lui=0, branch=1, is_jal=0, funct3=000, funct7=0000000, prediction_valid=1, predicted_pc=00006000, alu_src=1, immediate_data=00000100, PC_ID_EX=00005000, ALUSrcA=0, is_jalr=0, alu_out=ffffff0a, branch_taken=1, branch_addr=00005100, pc_redirect=1, flush_fetch=1, rs2_mem_data=0000000a
Test Case 7c: BEQ Not Taken (Correct Prediction)
Time=220000: clk=0, rst=0, EX_MEM_RegWrite=0, MEM_WB_RegWrite=0, ID_EX_RS= 0, ID_EX_RT= 0, EX_MEM_RD= 0, MEM_WB_RD= 0, rs1_data=0000000a, rs2_data=0000000b, EX_MEM_i=00000000, MEM_WB_i=00000000, alu_op=01, is_sw=0, is_lw=0, is_lui=0, branch=1, is_jal=0, funct3=000, funct7=0000000, prediction_valid=0, predicted_pc=00005004, alu_src=1, immediate_data=00000100, PC_ID_EX=00005000, ALUSrcA=0, is_jalr=0, alu_out=ffffff0a, branch_taken=0, branch_addr=00005100, pc_redirect=0, flush_fetch=0, rs2_mem_data=0000000b
Time=230000: clk=1, rst=0, EX_MEM_RegWrite=0, MEM_WB_RegWrite=0, ID_EX_RS= 0, ID_EX_RT= 0, EX_MEM_RD= 0, MEM_WB_RD= 0, rs1_data=0000000a, rs2_data=0000000b, EX_MEM_i=00000000, MEM_WB_i=00000000, alu_op=01, is_sw=0, is_lw=0, is_lui=0, branch=1, is_jal=0, funct3=000, funct7=0000000, prediction_valid=0, predicted_pc=00005004, alu_src=1, immediate_data=00000100, PC_ID_EX=00005000, ALUSrcA=0, is_jalr=0, alu_out=ffffff0a, branch_taken=0, branch_addr=00005100, pc_redirect=0, flush_fetch=0, rs2_mem_data=0000000b
Test Case 7d: BEQ Not Taken (Mispredicted Taken)
Time=240000: clk=0, rst=0, EX_MEM_RegWrite=0, MEM_WB_RegWrite=0, ID_EX_RS= 0, ID_EX_RT= 0, EX_MEM_RD= 0, MEM_WB_RD= 0, rs1_data=0000000a, rs2_data=0000000b, EX_MEM_i=00000000, MEM_WB_i=00000000, alu_op=01, is_sw=0, is_lw=0, is_lui=0, branch=1, is_jal=0, funct3=000, funct7=0000000, prediction_valid=1, predicted_pc=00005100, alu_src=1, immediate_data=00000100, PC_ID_EX=00005000, ALUSrcA=0, is_jalr=0, alu_out=ffffff0a, branch_taken=0, branch_addr=00005100, pc_redirect=0, flush_fetch=1, rs2_mem_data=0000000b
BEQ Not Taken Error (Mispredicted Taken): branch_taken=0 pc_redirect=0 flush_fetch=1
Time=250000: clk=1, rst=0, EX_MEM_RegWrite=0, MEM_WB_RegWrite=0, ID_EX_RS= 0, ID_EX_RT= 0, EX_MEM_RD= 0, MEM_WB_RD= 0, rs1_data=0000000a, rs2_data=0000000b, EX_MEM_i=00000000, MEM_WB_i=00000000, alu_op=01, is_sw=0, is_lw=0, is_lui=0, branch=1, is_jal=0, funct3=000, funct7=0000000, prediction_valid=1, predicted_pc=00005100, alu_src=1, immediate_data=00000100, PC_ID_EX=00005000, ALUSrcA=0, is_jalr=0, alu_out=ffffff0a, branch_taken=0, branch_addr=00005100, pc_redirect=0, flush_fetch=1, rs2_mem_data=0000000b
Test Case 8: SW
Time=260000: clk=0, rst=0, EX_MEM_RegWrite=0, MEM_WB_RegWrite=0, ID_EX_RS= 0, ID_EX_RT= 0, EX_MEM_RD= 0, MEM_WB_RD= 0, rs1_data=00001000, rs2_data=cafebabe, EX_MEM_i=00000000, MEM_WB_i=00000000, alu_op=00, is_sw=1, is_lw=0, is_lui=0, branch=0, is_jal=0, funct3=010, funct7=0000000, prediction_valid=0, predicted_pc=00000000, alu_src=1, immediate_data=00000040, PC_ID_EX=00005000, ALUSrcA=0, is_jalr=0, alu_out=00001040, branch_taken=0, branch_addr=00005040, pc_redirect=0, flush_fetch=0, rs2_mem_data=cafebabe
Time=270000: clk=1, rst=0, EX_MEM_RegWrite=0, MEM_WB_RegWrite=0, ID_EX_RS= 0, ID_EX_RT= 0, EX_MEM_RD= 0, MEM_WB_RD= 0, rs1_data=00001000, rs2_data=00000000, EX_MEM_i=00000000, MEM_WB_i=00000000, alu_op=00, is_sw=0, is_lw=0, is_lui=0, branch=0, is_jal=0, funct3=010, funct7=0000000, prediction_valid=0, predicted_pc=00000000, alu_src=1, immediate_data=00000040, PC_ID_EX=00005000, ALUSrcA=0, is_jalr=0, alu_out=00000000, branch_taken=0, branch_addr=00005040, pc_redirect=0, flush_fetch=0, rs2_mem_data=00000000
Test Case 9: LW
Time=280000: clk=0, rst=0, EX_MEM_RegWrite=0, MEM_WB_RegWrite=0, ID_EX_RS= 0, ID_EX_RT= 0, EX_MEM_RD= 0, MEM_WB_RD= 0, rs1_data=00002000, rs2_data=00000000, EX_MEM_i=00000000, MEM_WB_i=00000000, alu_op=00, is_sw=0, is_lw=1, is_lui=0, branch=0, is_jal=0, funct3=010, funct7=0000000, prediction_valid=0, predicted_pc=00000000, alu_src=1, immediate_data=00000080, PC_ID_EX=00005000, ALUSrcA=0, is_jalr=0, alu_out=00002080, branch_taken=0, branch_addr=00005080, pc_redirect=0, flush_fetch=0, rs2_mem_data=00000000
Time=290000: clk=1, rst=0, EX_MEM_RegWrite=0, MEM_WB_RegWrite=0, ID_EX_RS= 0, ID_EX_RT= 0, EX_MEM_RD= 0, MEM_WB_RD= 0, rs1_data=00002000, rs2_data=00000000, EX_MEM_i=00000000, MEM_WB_i=00000000, alu_op=00, is_sw=0, is_lw=0, is_lui=0, branch=0, is_jal=0, funct3=010, funct7=0000000, prediction_valid=0, predicted_pc=00000000, alu_src=1, immediate_data=00000080, PC_ID_EX=00005000, ALUSrcA=0, is_jalr=0, alu_out=00000000, branch_taken=0, branch_addr=00005080, pc_redirect=0, flush_fetch=0, rs2_mem_data=00000000
Test Case 10: SLL
Time=300000: clk=0, rst=0, EX_MEM_RegWrite=0, MEM_WB_RegWrite=0, ID_EX_RS= 0, ID_EX_RT= 0, EX_MEM_RD= 0, MEM_WB_RD= 0, rs1_data=0000000f, rs2_data=00000004, EX_MEM_i=00000000, MEM_WB_i=00000000, alu_op=10, is_sw=0, is_lw=0, is_lui=0, branch=0, is_jal=0, funct3=001, funct7=0000000, prediction_valid=0, predicted_pc=00000000, alu_src=0, immediate_data=00000080, PC_ID_EX=00005000, ALUSrcA=0, is_jalr=0, alu_out=000000f0, branch_taken=0, branch_addr=00005080, pc_redirect=0, flush_fetch=0, rs2_mem_data=00000004
Time=310000: clk=1, rst=0, EX_MEM_RegWrite=0, MEM_WB_RegWrite=0, ID_EX_RS= 0, ID_EX_RT= 0, EX_MEM_RD= 0, MEM_WB_RD= 0, rs1_data=0000000f, rs2_data=00000004, EX_MEM_i=00000000, MEM_WB_i=00000000, alu_op=10, is_sw=0, is_lw=0, is_lui=0, branch=0, is_jal=0, funct3=001, funct7=0000000, prediction_valid=0, predicted_pc=00000000, alu_src=0, immediate_data=00000080, PC_ID_EX=00005000, ALUSrcA=0, is_jalr=0, alu_out=000000f0, branch_taken=0, branch_addr=00005080, pc_redirect=0, flush_fetch=0, rs2_mem_data=00000004
Test Case 11: SLLI
Time=320000: clk=0, rst=0, EX_MEM_RegWrite=0, MEM_WB_RegWrite=0, ID_EX_RS= 0, ID_EX_RT= 0, EX_MEM_RD= 0, MEM_WB_RD= 0, rs1_data=0000000f, rs2_data=00000004, EX_MEM_i=00000000, MEM_WB_i=00000000, alu_op=00, is_sw=0, is_lw=0, is_lui=0, branch=0, is_jal=0, funct3=001, funct7=0000000, prediction_valid=0, predicted_pc=00000000, alu_src=1, immediate_data=00000008, PC_ID_EX=00005000, ALUSrcA=0, is_jalr=0, alu_out=00000f00, branch_taken=0, branch_addr=00005008, pc_redirect=0, flush_fetch=0, rs2_mem_data=00000004
Time=330000: clk=1, rst=0, EX_MEM_RegWrite=0, MEM_WB_RegWrite=0, ID_EX_RS= 0, ID_EX_RT= 0, EX_MEM_RD= 0, MEM_WB_RD= 0, rs1_data=0000000f, rs2_data=00000004, EX_MEM_i=00000000, MEM_WB_i=00000000, alu_op=00, is_sw=0, is_lw=0, is_lui=0, branch=0, is_jal=0, funct3=001, funct7=0000000, prediction_valid=0, predicted_pc=00000000, alu_src=1, immediate_data=00000008, PC_ID_EX=00005000, ALUSrcA=0, is_jalr=0, alu_out=00000f00, branch_taken=0, branch_addr=00005008, pc_redirect=0, flush_fetch=0, rs2_mem_data=00000004
Test Case 12: SUB
Time=340000: clk=0, rst=0, EX_MEM_RegWrite=0, MEM_WB_RegWrite=0, ID_EX_RS= 0, ID_EX_RT= 0, EX_MEM_RD= 0, MEM_WB_RD= 0, rs1_data=0000000f, rs2_data=0000000a, EX_MEM_i=00000000, MEM_WB_i=00000000, alu_op=10, is_sw=0, is_lw=0, is_lui=0, branch=0, is_jal=0, funct3=000, funct7=0100000, prediction_valid=0, predicted_pc=00000000, alu_src=0, immediate_data=00000008, PC_ID_EX=00005000, ALUSrcA=0, is_jalr=0, alu_out=00000005, branch_taken=0, branch_addr=00005008, pc_redirect=0, flush_fetch=0, rs2_mem_data=0000000a
Time=350000: clk=1, rst=0, EX_MEM_RegWrite=0, MEM_WB_RegWrite=0, ID_EX_RS= 0, ID_EX_RT= 0, EX_MEM_RD= 0, MEM_WB_RD= 0, rs1_data=0000000f, rs2_data=0000000a, EX_MEM_i=00000000, MEM_WB_i=00000000, alu_op=10, is_sw=0, is_lw=0, is_lui=0, branch=0, is_jal=0, funct3=000, funct7=0100000, prediction_valid=0, predicted_pc=00000000, alu_src=0, immediate_data=00000008, PC_ID_EX=00005000, ALUSrcA=0, is_jalr=0, alu_out=00000005, branch_taken=0, branch_addr=00005008, pc_redirect=0, flush_fetch=0, rs2_mem_data=0000000a
Test Case 13: AND
Time=360000: clk=0, rst=0, EX_MEM_RegWrite=0, MEM_WB_RegWrite=0, ID_EX_RS= 0, ID_EX_RT= 0, EX_MEM_RD= 0, MEM_WB_RD= 0, rs1_data=ffffffff, rs2_data=aaaaaaaa, EX_MEM_i=00000000, MEM_WB_i=00000000, alu_op=10, is_sw=0, is_lw=0, is_lui=0, branch=0, is_jal=0, funct3=111, funct7=0000000, prediction_valid=0, predicted_pc=00000000, alu_src=0, immediate_data=00000008, PC_ID_EX=00005000, ALUSrcA=0, is_jalr=0, alu_out=aaaaaaaa, branch_taken=0, branch_addr=00005008, pc_redirect=0, flush_fetch=0, rs2_mem_data=aaaaaaaa
Time=370000: clk=1, rst=0, EX_MEM_RegWrite=0, MEM_WB_RegWrite=0, ID_EX_RS= 0, ID_EX_RT= 0, EX_MEM_RD= 0, MEM_WB_RD= 0, rs1_data=ffffffff, rs2_data=aaaaaaaa, EX_MEM_i=00000000, MEM_WB_i=00000000, alu_op=10, is_sw=0, is_lw=0, is_lui=0, branch=0, is_jal=0, funct3=111, funct7=0000000, prediction_valid=0, predicted_pc=00000000, alu_src=0, immediate_data=00000008, PC_ID_EX=00005000, ALUSrcA=0, is_jalr=0, alu_out=aaaaaaaa, branch_taken=0, branch_addr=00005008, pc_redirect=0, flush_fetch=0, rs2_mem_data=aaaaaaaa
Test Case 14: OR
Time=380000: clk=0, rst=0, EX_MEM_RegWrite=0, MEM_WB_RegWrite=0, ID_EX_RS= 0, ID_EX_RT= 0, EX_MEM_RD= 0, MEM_WB_RD= 0, rs1_data=12345678, rs2_data=87654321, EX_MEM_i=00000000, MEM_WB_i=00000000, alu_op=10, is_sw=0, is_lw=0, is_lui=0, branch=0, is_jal=0, funct3=110, funct7=0000000, prediction_valid=0, predicted_pc=00000000, alu_src=0, immediate_data=00000008, PC_ID_EX=00005000, ALUSrcA=0, is_jalr=0, alu_out=97755779, branch_taken=0, branch_addr=00005008, pc_redirect=0, flush_fetch=0, rs2_mem_data=87654321
Time=390000: clk=1, rst=0, EX_MEM_RegWrite=0, MEM_WB_RegWrite=0, ID_EX_RS= 0, ID_EX_RT= 0, EX_MEM_RD= 0, MEM_WB_RD= 0, rs1_data=12345678, rs2_data=87654321, EX_MEM_i=00000000, MEM_WB_i=00000000, alu_op=10, is_sw=0, is_lw=0, is_lui=0, branch=0, is_jal=0, funct3=110, funct7=0000000, prediction_valid=0, predicted_pc=00000000, alu_src=0, immediate_data=00000008, PC_ID_EX=00005000, ALUSrcA=0, is_jalr=0, alu_out=97755779, branch_taken=0, branch_addr=00005008, pc_redirect=0, flush_fetch=0, rs2_mem_data=87654321
Test Case 15: XOR
Time=400000: clk=0, rst=0, EX_MEM_RegWrite=0, MEM_WB_RegWrite=0, ID_EX_RS= 0, ID_EX_RT= 0, EX_MEM_RD= 0, MEM_WB_RD= 0, rs1_data=aaaaaaaa, rs2_data=55555555, EX_MEM_i=00000000, MEM_WB_i=00000000, alu_op=10, is_sw=0, is_lw=0, is_lui=0, branch=0, is_jal=0, funct3=100, funct7=0000000, prediction_valid=0, predicted_pc=00000000, alu_src=0, immediate_data=00000008, PC_ID_EX=00005000, ALUSrcA=0, is_jalr=0, alu_out=ffffffff, branch_taken=0, branch_addr=00005008, pc_redirect=0, flush_fetch=0, rs2_mem_data=55555555
Time=410000: clk=1, rst=0, EX_MEM_RegWrite=0, MEM_WB_RegWrite=0, ID_EX_RS= 0, ID_EX_RT= 0, EX_MEM_RD= 0, MEM_WB_RD= 0, rs1_data=aaaaaaaa, rs2_data=55555555, EX_MEM_i=00000000, MEM_WB_i=00000000, alu_op=10, is_sw=0, is_lw=0, is_lui=0, branch=0, is_jal=0, funct3=100, funct7=0000000, prediction_valid=0, predicted_pc=00000000, alu_src=0, immediate_data=00000008, PC_ID_EX=00005000, ALUSrcA=0, is_jalr=0, alu_out=ffffffff, branch_taken=0, branch_addr=00005008, pc_redirect=0, flush_fetch=0, rs2_mem_data=55555555
Test Case 16: SRL
Time=420000: clk=0, rst=0, EX_MEM_RegWrite=0, MEM_WB_RegWrite=0, ID_EX_RS= 0, ID_EX_RT= 0, EX_MEM_RD= 0, MEM_WB_RD= 0, rs1_data=80000000, rs2_data=00000004, EX_MEM_i=00000000, MEM_WB_i=00000000, alu_op=10, is_sw=0, is_lw=0, is_lui=0, branch=0, is_jal=0, funct3=101, funct7=0000000, prediction_valid=0, predicted_pc=00000000, alu_src=0, immediate_data=00000008, PC_ID_EX=00005000, ALUSrcA=0, is_jalr=0, alu_out=08000000, branch_taken=0, branch_addr=00005008, pc_redirect=0, flush_fetch=0, rs2_mem_data=00000004
Time=430000: clk=1, rst=0, EX_MEM_RegWrite=0, MEM_WB_RegWrite=0, ID_EX_RS= 0, ID_EX_RT= 0, EX_MEM_RD= 0, MEM_WB_RD= 0, rs1_data=80000000, rs2_data=00000004, EX_MEM_i=00000000, MEM_WB_i=00000000, alu_op=10, is_sw=0, is_lw=0, is_lui=0, branch=0, is_jal=0, funct3=101, funct7=0000000, prediction_valid=0, predicted_pc=00000000, alu_src=0, immediate_data=00000008, PC_ID_EX=00005000, ALUSrcA=0, is_jalr=0, alu_out=08000000, branch_taken=0, branch_addr=00005008, pc_redirect=0, flush_fetch=0, rs2_mem_data=00000004
Test Case 17: SRA
